<svg width="28" height="28" viewBox="0 0 28 28" fill="none" xmlns="http://www.w3.org/2000/svg">
<rect width="28" height="28" rx="3" fill="#EFF4F8"/>
<circle cx="14" cy="8" r="2" fill="#C3CDD4"/>
<circle cx="14" cy="14" r="2" fill="#C3CDD4"/>
<circle cx="14" cy="20" r="2" fill="#C3CDD4"/>
</svg>
