<svg width="38" height="38" viewBox="0 0 38 38" fill="none" xmlns="http://www.w3.org/2000/svg">
<circle cx="19" cy="11" r="2.5" fill="#C3CDD4"/>
<circle cx="19" cy="19" r="2.5" fill="#C3CDD4"/>
<circle cx="19" cy="27" r="2.5" fill="#C3CDD4"/>
</svg>
