<svg width="80" height="80" viewBox="0 0 80 80" fill="none" xmlns="http://www.w3.org/2000/svg">
<g opacity="0.5" filter="url(#filter0_f_10_1324)">
<circle cx="40" cy="40" r="20" fill="url(#paint0_linear_10_1324)"/>
</g>
<g opacity="0.8" filter="url(#filter1_i_10_1324)">
<circle cx="40" cy="40" r="20" fill="#27B972"/>
</g>
<path d="M34.6154 39.3844L38.3077 43.0767L44.4615 36.9229" stroke="white" stroke-width="2"/>
<defs>
<filter id="filter0_f_10_1324" x="0" y="0" width="80" height="80" filterUnits="userSpaceOnUse" color-interpolation-filters="sRGB">
<feFlood flood-opacity="0" result="BackgroundImageFix"/>
<feBlend mode="normal" in="SourceGraphic" in2="BackgroundImageFix" result="shape"/>
<feGaussianBlur stdDeviation="10" result="effect1_foregroundBlur_10_1324"/>
</filter>
<filter id="filter1_i_10_1324" x="20" y="20" width="40" height="40" filterUnits="userSpaceOnUse" color-interpolation-filters="sRGB">
<feFlood flood-opacity="0" result="BackgroundImageFix"/>
<feBlend mode="normal" in="SourceGraphic" in2="BackgroundImageFix" result="shape"/>
<feColorMatrix in="SourceAlpha" type="matrix" values="0 0 0 0 0 0 0 0 0 0 0 0 0 0 0 0 0 0 127 0" result="hardAlpha"/>
<feOffset/>
<feGaussianBlur stdDeviation="1"/>
<feComposite in2="hardAlpha" operator="arithmetic" k2="-1" k3="1"/>
<feColorMatrix type="matrix" values="0 0 0 0 1 0 0 0 0 1 0 0 0 0 1 0 0 0 1 0"/>
<feBlend mode="normal" in2="shape" result="effect1_innerShadow_10_1324"/>
</filter>
<linearGradient id="paint0_linear_10_1324" x1="59.9306" y1="70.9091" x2="12.2086" y2="62.1705" gradientUnits="userSpaceOnUse">
<stop stop-color="#45FAEF"/>
<stop offset="1" stop-color="#64FF1B"/>
</linearGradient>
</defs>
</svg>
